<?xml version="1.0" encoding="UTF-8"?>
<svg width="30px" height="21px" viewBox="0 0 30 21" version="1.1" xmlns="http://www.w3.org/2000/svg" xmlns:xlink="http://www.w3.org/1999/xlink">
    <!-- Generator: Sketch 40.3 (33839) - http://www.bohemiancoding.com/sketch -->
    <title>Settings_Icon</title>
    <desc>Created with Sketch.</desc>
    <defs></defs>
    <g id="Page-1" stroke="none" stroke-width="1" fill="none" fill-rule="evenodd">
        <g id="Home" transform="translate(-51.000000, -556.000000)">
            <g id="Group-4" transform="translate(-7.000000, 0.000000)">
                <g id="dashboard">
                    <g id="SETTINGS" transform="translate(59.000000, 556.000000)">
                        <g id="Settings_Icon" transform="translate(0.000000, 1.000000)">
                            <g id="Layer_334">
                                <g id="Group">
                                    <g transform="translate(0.000000, 11.102041)">
                                        <path d="M4.34482759,0 L23.6551724,0 C26.0548448,0 28,1.86387075 28,4.16326531 C28,6.46265986 26.0548448,8.32653061 23.6551724,8.32653061 L4.34482759,8.32653061" id="Shape" fill="#FFD948"></path>
                                        <ellipse id="Oval" fill="#FFFFFF" cx="4.34482759" cy="4.16326531" rx="4.34482759" ry="4.16326531"></ellipse>
                                        <ellipse id="Oval" stroke="#223441" stroke-width="0.5952" cx="4.34482759" cy="4.16326531" rx="4.34482759" ry="4.16326531"></ellipse>
                                        <path d="M2.4137931,4.16326531 C2.4137931,3.14141497 3.27841379,2.31292517 4.34482759,2.31292517" id="Shape" stroke="#223441" stroke-width="0.5952"></path>
                                        <path d="M4.34482759,0 L23.6551724,0 C26.0548448,0 28,1.86387075 28,4.16326531 C28,6.46265986 26.0548448,8.32653061 23.6551724,8.32653061 L4.34482759,8.32653061" id="Shape" stroke="#223441" stroke-width="0.5952"></path>
                                        <path id="Shape" stroke="#4D5152" stroke-width="0.95232"></path>
                                        <path id="Shape" stroke="#4D5152" stroke-width="0.95232"></path>
                                        <path id="Shape" stroke="#4D5152" stroke-width="0.95232"></path>
                                    </g>
                                    <g>
                                        <path d="M23.6551724,0 L4.34482759,0 C1.94515517,0 0,1.86387075 0,4.16326531 C0,6.46265986 1.94515517,8.32653061 4.34482759,8.32653061 L23.6551724,8.32653061" id="Shape" fill="#FFD948"></path>
                                        <ellipse id="Oval" fill="#FFFFFF" cx="23.6551724" cy="4.16326531" rx="4.34482759" ry="4.16326531"></ellipse>
                                        <ellipse id="Oval" stroke="#223441" stroke-width="0.5952" cx="23.6551724" cy="4.16326531" rx="4.34482759" ry="4.16326531"></ellipse>
                                        <path d="M25.5862069,4.16326531 C25.5862069,3.14141497 24.7215862,2.31292517 23.6551724,2.31292517" id="Shape" stroke="#223441" stroke-width="0.5952"></path>
                                        <path d="M23.6551724,0 L4.34482759,0 C1.94515517,0 0,1.86387075 0,4.16326531 C0,6.46265986 1.94515517,8.32653061 4.34482759,8.32653061 L23.6551724,8.32653061" id="Shape" stroke="#223441" stroke-width="0.5952"></path>
                                        <path id="Shape" stroke="#4D5152" stroke-width="0.95232"></path>
                                        <path id="Shape" stroke="#4D5152" stroke-width="0.95232"></path>
                                        <path id="Shape" stroke="#4D5152" stroke-width="0.95232"></path>
                                    </g>
                                </g>
                            </g>
                        </g>
                    </g>
                </g>
            </g>
        </g>
    </g>
</svg>